<?xml version="1.0" encoding="utf-8"?>
<!-- Generator: Adobe Illustrator 16.0.0, SVG Export Plug-In . SVG Version: 6.00 Build 0)  -->
<!DOCTYPE svg PUBLIC "-//W3C//DTD SVG 1.1//EN" "http://www.w3.org/Graphics/SVG/1.1/DTD/svg11.dtd">
<svg version="1.1" id="Layer_1" xmlns="http://www.w3.org/2000/svg" xmlns:xlink="http://www.w3.org/1999/xlink" x="0px" y="0px"
	 width="979.385px" height="128px" viewBox="0 0 979.385 128" enable-background="new 0 0 979.385 128" xml:space="preserve">
<title>INGRESAR</title>
<desc>Created with Sketch.</desc>
<g id="logo-clubalmundo_1_">
	<g>
		<path fill="#FFFFFF" d="M929.899,33.841c-25.094,0-45.523,21.059-45.523,46.976c0,25.854,20.421,46.931,45.523,46.931
			c25.075,0,45.486-21.087,45.486-46.931C975.385,54.9,954.974,33.841,929.899,33.841z M929.899,106.477
			c-13.769,0-24.945-11.512-24.945-25.658c0-14.194,11.178-25.713,24.945-25.713c13.73,0,24.927,11.528,24.927,25.713
			C954.824,94.965,943.629,106.477,929.899,106.477z M560.972,33.666c-10.917,0-20.727,4.497-27.591,12.648l-0.797,0.925
			l-0.759-0.962c-6.495-8.114-16.303-12.611-27.555-12.611c-23.048,0-39.111,16.451-39.111,39.971v52.121h20.781V73.119
			c0-10.863,7.561-18.496,18.33-18.496c15.877,0,17.59,12.936,17.59,18.496v52.639h20.781V73.119
			c0-10.863,7.531-18.496,18.329-18.496c16.479,0,17.784,14.165,17.784,18.496v52.639h20.81V73.637
			C599.573,49.386,584.419,33.666,560.972,33.666z M373.151,33.443h-0.621c-26.268,0-46.458,20.171-46.771,46.958
			c-0.296,25.891,19.153,47.162,43.146,47.494h0.963c7.651,0,14.859-1.072,19.671-2.951l0.564-0.213l-0.019-36.252l-1.443,2.174
			l-11.122,16.729l-0.055,0.027c-1.813,0.353-3.608,0.546-5.349,0.546c-6.477,0-12.343-2.434-16.896-7.087
			c-5.144-5.181-8.143-12.687-8.068-20.042c0.186-14.592,11.214-25.991,25.112-25.991h0.324
			c13.889,0.176,24.815,11.845,24.815,26.603l-0.073,44.228h21.817l-0.037-44.153C419.443,54.41,401.26,33.443,373.151,33.443z
			 M430.898,125.582h21.447V2.317h-21.447V125.582z M855.745,79.92c0,14.721-10.897,26.398-24.797,26.574h-0.313
			c-13.916,0-24.964-11.419-25.104-25.973c-0.082-7.394,2.925-14.871,8.032-20.023c4.579-4.682,10.428-7.115,16.914-7.115
			c1.729,0,3.553,0.194,5.318,0.556l0.095,0.019l11.131,16.71l1.396,2.191l0.056-36.25l-0.583-0.241
			c-4.85-1.87-12-2.924-19.645-2.924h-0.935c-24.001,0.277-43.256,21.568-43.006,47.513c0.333,26.74,20.328,46.939,46.577,46.939
			h0.64c26.48-0.334,46.244-21.014,45.958-48.097l0.055-77.723h-21.854L855.745,79.92z M736.996,33.666
			c-23.003,0-39.12,16.451-39.12,39.971v52.121h20.817V73.119c0-10.863,7.514-18.496,18.303-18.496
			c16.488,0,17.766,14.165,17.766,18.496v52.639h20.8V73.637C775.562,49.386,760.444,33.666,736.996,33.666z M666.75,88.637
			c0,10.678-7.699,18.449-18.284,18.449c-16.507,0-17.783-14.129-17.783-18.449V36.016h-20.8v51.898
			c0,24.298,15.137,40.02,38.583,40.02c23.021,0,39.084-16.471,39.084-40.02V36.016h-20.8V88.637z"/>
	</g>
	<g>
		<path fill="#FFFFFF" d="M276.334,33.934c-20.811,0-28.341,15.036-28.341,15.036h-0.333c0,0,0.333-3.127,0.333-7.522V1.067h-16.951
			v123.441h16.071v-6.486c0-3.83-0.352-6.623-0.352-6.623h0.352c0,0,8.077,15.201,27.823,15.201c23.242,0,40.23-18.201,40.23-46.375
			C315.167,52.828,300.104,33.934,276.334,33.934z M272.475,112.072c-16.774,0-25.01-15.711-25.01-31.432
			c0-22.577,12.251-31.848,25.52-31.848c14.693,0,25.021,12.417,25.021,31.645C298.004,100.553,286.493,112.072,272.475,112.072z
			 M53.093,111.906c-18.348,0-31.293-13.832-31.293-31.838c0-18.155,12.945-31.442,30.774-31.442
			c15.026,0,24.464,10.142,24.464,10.142l8.031-11.899c0,0-10.982-12.936-33.198-12.936c-27.805,0-47.394,20.097-47.394,46.301
			c0,26.602,19.588,46.373,47.394,46.373c23.086,0,35.336-14.174,35.336-14.174l-6.811-12.427
			C80.397,100.008,69.525,111.906,53.093,111.906z M113.577,97.406V1.067h-16.95v99.311c0,22.197,14.157,24.815,23.778,24.815
			c2.971,0,5.59-0.334,5.59-0.334v-15.053c0,0-1.37,0.193-2.979,0.193C117.769,110.001,113.577,108.049,113.577,97.406z
			 M196.269,77.469c0,17.496-10.659,33.383-28.665,33.383c-14.146,0-16.618-9.762-16.618-22.021V36.043h-16.97v56.645
			c0,23.42,10.354,33.92,30.275,33.92c17.274,0,28.832-11.537,32.496-20.299h0.37c0,0-0.37,2.803-0.37,6.478v11.723h16.45V36.043
			h-16.969V77.469L196.269,77.469z"/>
		<path fill="#FFFFFF" d="M164.291,127.607c-21.045,0-31.275-11.422-31.275-34.92V35.043h18.97v53.788
			c0,12.617,2.656,21.021,15.618,21.021c13.748,0,27.665-11.123,27.665-32.383V35.043h18.969v90.466h-18.45v-12.723
			c0-0.867,0.02-1.685,0.051-2.43C190.47,119.227,179.197,127.607,164.291,127.607z M135.016,37.043v55.645
			c0,22.459,9.302,32.92,29.275,32.92c17.125,0,28.265-11.771,31.574-19.685l0.257-0.614h2.176l-0.149,1.131
			c-0.003,0.027-0.361,2.788-0.361,6.347v10.723h14.45V37.043h-14.969v40.426c0,9.096-2.77,17.575-7.799,23.877
			c-5.486,6.873-13.047,10.506-21.866,10.506c-15.525,0-17.618-11.637-17.618-23.021V37.043H135.016z M51.871,127.607
			c-28.041,0-48.394-19.924-48.394-47.373c0-27.408,20.353-47.301,48.394-47.301c22.421,0,33.5,12.746,33.96,13.289l0.491,0.578
			l-9.158,13.568l-0.858-0.918c-0.092-0.099-9.343-9.824-23.732-9.824c-17.252,0-29.774,12.803-29.774,30.442
			c0,17.869,12.74,30.838,30.293,30.838c14.438,0,24.579-9.562,26.304-11.303v-3.502l9.021,16.461l-0.454,0.525
			C87.451,113.68,75.147,127.607,51.871,127.607z M51.871,34.933c-26.882,0-46.394,19.052-46.394,45.301
			c0,26.291,19.511,45.373,46.394,45.373c19.916,0,31.684-10.852,34.11-13.329l-5.827-10.633
			c-3.419,3.524-13.612,11.261-27.062,11.261c-18.712,0-32.293-13.811-32.293-32.838c0-18.798,13.363-32.442,31.774-32.442
			c12.821,0,21.581,7.059,24.307,9.587l6.913-10.242C81.406,44.553,70.721,34.933,51.871,34.933z M274.937,127.6
			c-14.942,0-23.479-8.595-26.917-13.08c0.054,1.002,0.094,2.189,0.094,3.502v7.486h-18.071V0.067h18.951v41.381
			c0,1.646-0.046,3.111-0.104,4.306c1.071-1.426,2.652-3.245,4.827-5.068c4.219-3.537,11.566-7.752,22.617-7.752
			c23.825,0,39.833,19.004,39.833,47.291C316.167,108.118,299.212,127.6,274.937,127.6z M246.762,110.398h0.951l0.283,0.529
			c0.078,0.146,8.062,14.672,26.94,14.672c11.09,0,21.062-4.363,28.083-12.285c7.293-8.23,11.147-19.674,11.147-33.09
			c0-27.513-14.851-45.291-37.833-45.291c-10.403,0-17.303,3.928-21.26,7.224c-4.303,3.585-6.169,7.225-6.188,7.262l-0.277,0.549
			l-2.061,0.001l0.117-1.106c0.003-0.031,0.328-3.132,0.328-7.417V2.067h-14.951v121.441h14.071v-5.486
			c0-3.715-0.34-6.471-0.344-6.498l-0.141-1.125H246.762z M120.406,126.193c-16.442,0-24.778-8.686-24.778-25.815V0.067h18.95
			v97.339c0,10.697,4.354,11.594,8.435,11.594c1.518,0,2.831-0.182,2.844-0.184l1.139-0.16l0,17.084l-0.874,0.111
			C126.012,125.865,123.405,126.193,120.406,126.193z M97.627,2.067v98.311c0,23.815,17.145,23.815,22.778,23.815
			c1.859,0,3.593-0.136,4.59-0.232v-13.044c-0.542,0.044-1.235,0.083-1.979,0.083c-4.862,0-10.438-1.545-10.438-13.594V2.067H97.627
			z M272.475,113.072c-17.87,0-26.01-16.812-26.01-32.432c0-24.219,13.699-32.848,26.52-32.848
			c15.563,0,26.021,13.119,26.021,32.645C299.004,99.652,288.095,113.072,272.475,113.072z M272.985,49.793
			c-18.078,0-24.52,15.936-24.52,30.848c0,14.656,7.514,30.432,24.01,30.432c14.672,0,24.529-12.311,24.53-30.635
			C297.005,62.108,287.352,49.793,272.985,49.793z"/>
	</g>
</g>
</svg>
